%YAML 1.1
%TAG !u! tag:unity3d.com,2011:
--- !u!114 &11400000
MonoBehaviour:
  m_ObjectHideFlags: 0
  m_PrefabParentObject: {fileID: 0}
  m_PrefabInternal: {fileID: 0}
  m_GameObject: {fileID: 0}
  m_Enabled: 1
  m_EditorHideFlags: 0
  m_Script: {fileID: 11500000, guid: 8a3bdb2cd68f901469e7cc149151eb49, type: 3}
  m_Name: Post-Processing Profile - Fall
  m_EditorClassIdentifier: 
  debugViews:
    m_Enabled: 1
    m_Settings:
      mode: 0
      depth:
        scale: 1
      motionVectors:
        sourceOpacity: 1
        motionImageOpacity: 0
        motionImageAmplitude: 16
        motionVectorsOpacity: 1
        motionVectorsResolution: 24
        motionVectorsAmplitude: 64
  fog:
    m_Enabled: 1
    m_Settings:
      excludeSkybox: 0
  antialiasing:
    m_Enabled: 1
    m_Settings:
      method: 0
      fxaaSettings:
        preset: 4
      taaSettings:
        jitterSpread: 0.75
        sharpen: 0.3
        stationaryBlending: 0.95
        motionBlending: 0.85
  ambientOcclusion:
    m_Enabled: 1
    m_Settings:
      intensity: 0.1
      radius: 0.1
      sampleCount: 16
      downsampling: 1
      forceForwardCompatibility: 0
      ambientOnly: 0
      highPrecision: 0
  screenSpaceReflection:
    m_Enabled: 0
    m_Settings:
      reflection:
        blendType: 0
        reflectionQuality: 2
        maxDistance: 100
        iterationCount: 256
        stepSize: 3
        widthModifier: 0.5
        reflectionBlur: 1
        reflectBackfaces: 0
      intensity:
        reflectionMultiplier: 1
        fadeDistance: 100
        fresnelFade: 1
        fresnelFadePower: 1
      screenEdgeMask:
        intensity: 0.03
  depthOfField:
    m_Enabled: 0
    m_Settings:
      focusDistance: 1.75
      aperture: 7.9
      focalLength: 50
      useCameraFov: 0
      kernelSize: 2
  motionBlur:
    m_Enabled: 0
    m_Settings:
      shutterAngle: 270
      sampleCount: 10
      frameBlending: 0
  eyeAdaptation:
    m_Enabled: 1
    m_Settings:
      lowPercent: 45
      highPercent: 95
      minLuminance: -5
      maxLuminance: -3.39
      keyValue: 0.25
      dynamicKeyValue: 1
      adaptationType: 0
      speedUp: 2
      speedDown: 1
      logMin: -8
      logMax: 4
  bloom:
    m_Enabled: 1
    m_Settings:
      bloom:
        intensity: 1
        threshold: 1.1
        softKnee: 0.725
        radius: 1
        antiFlicker: 1
      lensDirt:
        texture: {fileID: 2800000, guid: 3884f7a2d04ffe8409ad9200b275896f, type: 3}
        intensity: 10
  colorGrading:
    m_Enabled: 1
    m_Settings:
      tonemapping:
        tonemapper: 1
        neutralBlackIn: 0.048
        neutralWhiteIn: 10
        neutralBlackOut: 0
        neutralWhiteOut: 10
        neutralWhiteLevel: 5.3
        neutralWhiteClip: 10
      basic:
        postExposure: 0.25
        temperature: 3
        tint: -40
        hueShift: -19
        saturation: 0.74
        contrast: 1.2
      channelMixer:
        red: {x: 1.09, y: 0.47, z: -0.09}
        green: {x: -0.03, y: 0.91, z: 0}
        blue: {x: 0, y: -0.1, z: 1.05}
        currentEditingChannel: 1
      colorWheels:
        mode: 0
        log:
          slope: {r: 1, g: 0.97646, b: 0.84795976, a: -0.07476635}
          power: {r: 0.58901685, g: 0.64833325, b: 1, a: 0.037383176}
          offset: {r: 1, g: 0.93234247, b: 0.95312977, a: 0}
        linear:
          lift: {r: 1, g: 0.8107418, b: 0.95991015, a: -0.0000000011837371}
          gamma: {r: 1, g: 0.8284531, b: 0.76636285, a: 0}
          gain: {r: 0, g: 0.49792767, b: 1, a: -0.11214953}
      curves:
        master:
          curve:
            serializedVersion: 2
            m_Curve:
            - serializedVersion: 2
              time: 0
              value: 0
              inSlope: 0
              outSlope: 1
              tangentMode: 0
            - serializedVersion: 2
              time: 1
              value: 1
              inSlope: 0.39229217
              outSlope: 0.39229217
              tangentMode: 0
            m_PreInfinity: 2
            m_PostInfinity: 2
            m_RotationOrder: 0
          m_Loop: 0
          m_ZeroValue: 0
          m_Range: 1
        red:
          curve:
            serializedVersion: 2
            m_Curve:
            - serializedVersion: 2
              time: 0
              value: 0
              inSlope: 0
              outSlope: 1
              tangentMode: 0
            - serializedVersion: 2
              time: 1
              value: 1
              inSlope: 1
              outSlope: 0
              tangentMode: 0
            m_PreInfinity: 2
            m_PostInfinity: 2
            m_RotationOrder: 0
          m_Loop: 0
          m_ZeroValue: 0
          m_Range: 1
        green:
          curve:
            serializedVersion: 2
            m_Curve:
            - serializedVersion: 2
              time: 0
              value: 0
              inSlope: 1
              outSlope: 1
              tangentMode: 0
            - serializedVersion: 2
              time: 1
              value: 1
              inSlope: 1
              outSlope: 1
              tangentMode: 0
            m_PreInfinity: 2
            m_PostInfinity: 2
            m_RotationOrder: 0
          m_Loop: 0
          m_ZeroValue: 0
          m_Range: 1
        blue:
          curve:
            serializedVersion: 2
            m_Curve:
            - serializedVersion: 2
              time: 0
              value: 0
              inSlope: 1
              outSlope: 1
              tangentMode: 0
            - serializedVersion: 2
              time: 1
              value: 1
              inSlope: 1
              outSlope: 1
              tangentMode: 0
            m_PreInfinity: 2
            m_PostInfinity: 2
            m_RotationOrder: 0
          m_Loop: 0
          m_ZeroValue: 0
          m_Range: 1
        hueVShue:
          curve:
            serializedVersion: 2
            m_Curve: []
            m_PreInfinity: 2
            m_PostInfinity: 2
            m_RotationOrder: 4
          m_Loop: 1
          m_ZeroValue: 0.5
          m_Range: 1
        hueVSsat:
          curve:
            serializedVersion: 2
            m_Curve: []
            m_PreInfinity: 2
            m_PostInfinity: 2
            m_RotationOrder: 4
          m_Loop: 1
          m_ZeroValue: 0.5
          m_Range: 1
        satVSsat:
          curve:
            serializedVersion: 2
            m_Curve: []
            m_PreInfinity: 2
            m_PostInfinity: 2
            m_RotationOrder: 4
          m_Loop: 0
          m_ZeroValue: 0.5
          m_Range: 1
        lumVSsat:
          curve:
            serializedVersion: 2
            m_Curve: []
            m_PreInfinity: 2
            m_PostInfinity: 2
            m_RotationOrder: 4
          m_Loop: 0
          m_ZeroValue: 0.5
          m_Range: 1
        e_CurrentEditingCurve: 0
        e_CurveY: 1
        e_CurveR: 1
        e_CurveG: 1
        e_CurveB: 1
  userLut:
    m_Enabled: 0
    m_Settings:
      lut: {fileID: 0}
      contribution: 1
  chromaticAberration:
    m_Enabled: 1
    m_Settings:
      spectralTexture: {fileID: 0}
      intensity: 0.25
  grain:
    m_Enabled: 1
    m_Settings:
      colored: 1
      intensity: 0.12
      size: 0.96
      luminanceContribution: 0.8
  vignette:
    m_Enabled: 1
    m_Settings:
      mode: 0
      color: {r: 0, g: 0, b: 0, a: 1}
      center: {x: 0.5, y: 0.5}
      intensity: 0.45
      smoothness: 0.26
      roundness: 0.88
      mask: {fileID: 0}
      opacity: 1
      rounded: 0
  dithering:
    m_Enabled: 0
  monitors:
    currentMonitorID: 0
    refreshOnPlay: 0
    histogramMode: 3
    waveformExposure: 0.12
    waveformY: 0
    waveformR: 1
    waveformG: 1
    waveformB: 1
    paradeExposure: 0.12
    vectorscopeExposure: 0.12
    vectorscopeShowBackground: 1
